{

    "user":"ubuntu",
    "host":"ec2-12-345-678-910.us-west-2.compute.amazonaws.com",
    "key_file_path":"../path/to/myCert.pem",
    "password":"my_password_if_key_file_path_isn't_a_thing",
    "hash_file_path": "file_hash.json",
    "actions" : [
        {
            "type": "upload",
            "files" : [
                "../path/to/localFile1.txt",
                "/path/to/localFile2.py",
                "localFile3.js",
                "/path/to/directory/to/upload/"
            ],
            "remote": "/path/to/remote/directory"
        },
        {
            "type": "command",
            "entries": "sudo systemctl restart myService.service"
        },
        {
            "type": "upload",
            "files" : "../path/to/local/file1.txt",
            "remote": "/path/to/remote/directory2"
        },
        {
            "type": "command",
            "entries": [
                "cd /lets/go/to/this/directory",
                "python theBestScript.py"
            ]
        }
    ]
}